{
	"info": {
		"_postman_id": "74b0200a-db6a-468a-81ef-e7f95a5abba0",
		"name": "6609-Tugas Week 6",
		"schema": "https://schema.getpostman.com/json/collection/v2.1.0/collection.json"
	},
	"item": [
		{
			"name": "Register User",
			"request": {
				"method": "POST",
				"header": [],
				"body": {
					"mode": "urlencoded",
					"urlencoded": [
						{
							"key": "email",
							"value": "premium@premium.com",
							"type": "text"
						},
						{
							"key": "nama",
							"value": "premium user",
							"type": "text"
						},
						{
							"key": "tipe",
							"value": "2",
							"type": "text"
						},
						{
							"key": "password",
							"value": "password",
							"type": "text"
						}
					]
				},
				"url": {
					"raw": "localhost:3000/api/registerUser",
					"host": [
						"localhost"
					],
					"port": "3000",
					"path": [
						"api",
						"registerUser"
					]
				}
			},
			"response": []
		},
		{
			"name": "Login User",
			"request": {
				"method": "POST",
				"header": [],
				"body": {
					"mode": "urlencoded",
					"urlencoded": [
						{
							"key": "email",
							"value": "premium@premium.com",
							"type": "text"
						},
						{
							"key": "password",
							"value": "password",
							"type": "text"
						}
					]
				},
				"url": {
					"raw": "localhost:3000/api/loginUser",
					"host": [
						"localhost"
					],
					"port": "3000",
					"path": [
						"api",
						"loginUser"
					]
				}
			},
			"response": []
		},
		{
			"name": "Create Recipe",
			"request": {
				"method": "POST",
				"header": [
					{
						"key": "6609-auth",
						"value": "",
						"type": "text"
					}
				],
				"body": {
					"mode": "urlencoded",
					"urlencoded": [
						{
							"key": "judul",
							"value": "Bahan Lengkap",
							"type": "text"
						},
						{
							"key": "bahan[]",
							"value": "satu",
							"type": "text"
						},
						{
							"key": "bahan[]",
							"value": "keju murah",
							"type": "text"
						},
						{
							"key": "bahan[]",
							"value": "tiga",
							"type": "text"
						},
						{
							"key": "kategori",
							"value": "Appetizer",
							"type": "text"
						},
						{
							"key": "waktu",
							"value": "1 jam",
							"type": "text"
						}
					]
				},
				"url": {
					"raw": "localhost:3000/api/createRecipe",
					"host": [
						"localhost"
					],
					"port": "3000",
					"path": [
						"api",
						"createRecipe"
					]
				}
			},
			"response": []
		},
		{
			"name": "Search Recipe",
			"request": {
				"method": "GET",
				"header": [
					{
						"key": "6609-auth",
						"value": "",
						"type": "text"
					}
				],
				"url": {
					"raw": "localhost:3000/api/searchRecipe",
					"host": [
						"localhost"
					],
					"port": "3000",
					"path": [
						"api",
						"searchRecipe"
					],
					"query": [
						{
							"key": "query",
							"value": "a",
							"disabled": true
						},
						{
							"key": "exclude",
							"value": "keju",
							"disabled": true
						}
					]
				}
			},
			"response": []
		},
		{
			"name": "Review Recipe",
			"request": {
				"method": "POST",
				"header": [
					{
						"key": "6609-auth",
						"type": "text",
						"value": ""
					}
				],
				"body": {
					"mode": "urlencoded",
					"urlencoded": [
						{
							"key": "kode_resep",
							"value": "REAP002",
							"type": "text"
						},
						{
							"key": "isi_review",
							"value": "Ganti review",
							"type": "text"
						},
						{
							"key": "tanggal",
							"value": "2020-12-05",
							"description": "tidak perlu diisi tidak apa-apa. aku ambil sysdate. kalau diisi, format yyyy-mm-dd",
							"type": "text"
						},
						{
							"key": "email_reviewer",
							"value": "",
							"description": "tidak perlu diisi, ambil dari token",
							"type": "text",
							"disabled": true
						}
					]
				},
				"url": {
					"raw": "localhost:3000/api/reviewRecipe",
					"host": [
						"localhost"
					],
					"port": "3000",
					"path": [
						"api",
						"reviewRecipe"
					]
				}
			},
			"response": []
		},
		{
			"name": "Get Recipe",
			"request": {
				"method": "GET",
				"header": [
					{
						"key": "6609-auth",
						"type": "text",
						"value": ""
					}
				],
				"url": {
					"raw": "localhost:3000/api/getReview",
					"host": [
						"localhost"
					],
					"port": "3000",
					"path": [
						"api",
						"getReview"
					],
					"query": [
						{
							"key": "date",
							"value": "12/03/2020",
							"description": "format soal mm/dd/yyyyy",
							"disabled": true
						}
					]
				}
			},
			"response": []
		}
	],
	"protocolProfileBehavior": {}
}