{
	"info": {
		"_postman_id": "39f56c8c-1afa-420e-8097-b1e40644e738",
		"name": "6609",
		"schema": "https://schema.getpostman.com/json/collection/v2.1.0/collection.json"
	},
	"item": [
		{
			"name": "localhost:3000/api/addUser",
			"request": {
				"method": "POST",
				"header": [],
				"body": {
					"mode": "urlencoded",
					"urlencoded": [
						{
							"key": "nomorhp",
							"value": "456",
							"type": "text"
						},
						{
							"key": "nama",
							"value": "ivan",
							"type": "text"
						},
						{
							"key": "password",
							"value": "password",
							"type": "text"
						},
						{
							"key": "saldo",
							"value": "",
							"type": "text"
						},
						{
							"key": "tipe",
							"value": "2",
							"type": "text"
						}
					]
				},
				"url": {
					"raw": "localhost:3000/api/addUser",
					"host": [
						"localhost"
					],
					"port": "3000",
					"path": [
						"api",
						"addUser"
					]
				}
			},
			"response": []
		},
		{
			"name": "localhost:3000/api/topUp",
			"request": {
				"method": "POST",
				"header": [],
				"body": {
					"mode": "urlencoded",
					"urlencoded": [
						{
							"key": "key",
							"value": "0978720413",
							"type": "text"
						},
						{
							"key": "topup",
							"value": "50000",
							"type": "text"
						}
					]
				},
				"url": {
					"raw": "localhost:3000/api/topUp",
					"host": [
						"localhost"
					],
					"port": "3000",
					"path": [
						"api",
						"topUp"
					],
					"query": [
						{
							"key": "key",
							"value": "4734344027",
							"disabled": true
						}
					]
				}
			},
			"response": []
		},
		{
			"name": "localhost:3000/api/addSong",
			"request": {
				"method": "POST",
				"header": [],
				"body": {
					"mode": "urlencoded",
					"urlencoded": [
						{
							"key": "key",
							"value": "4734344027",
							"type": "text"
						},
						{
							"key": "judul_lagu",
							"value": "judul",
							"type": "text"
						},
						{
							"key": "genre",
							"value": "genre",
							"type": "text"
						},
						{
							"key": "durasi",
							"value": "durasi",
							"type": "text"
						}
					]
				},
				"url": {
					"raw": "localhost:3000/api/addSong",
					"host": [
						"localhost"
					],
					"port": "3000",
					"path": [
						"api",
						"addSong"
					],
					"query": [
						{
							"key": "key",
							"value": null,
							"disabled": true
						}
					]
				}
			},
			"response": []
		},
		{
			"name": "localhost:3000/api/subscribe",
			"request": {
				"method": "POST",
				"header": [],
				"body": {
					"mode": "urlencoded",
					"urlencoded": [
						{
							"key": "key",
							"value": "0978720413",
							"type": "text"
						}
					]
				},
				"url": {
					"raw": "localhost:3000/api/subscribe",
					"host": [
						"localhost"
					],
					"port": "3000",
					"path": [
						"api",
						"subscribe"
					],
					"query": [
						{
							"key": "key",
							"value": null,
							"disabled": true
						}
					]
				}
			},
			"response": []
		},
		{
			"name": "localhost:3000/api/listen",
			"request": {
				"method": "POST",
				"header": [],
				"body": {
					"mode": "urlencoded",
					"urlencoded": [
						{
							"key": "key",
							"value": "0401883570",
							"type": "text"
						},
						{
							"key": "id_lagu",
							"value": "2",
							"type": "text"
						}
					]
				},
				"url": {
					"raw": "localhost:3000/api/listen",
					"host": [
						"localhost"
					],
					"port": "3000",
					"path": [
						"api",
						"listen"
					],
					"query": [
						{
							"key": "key",
							"value": null,
							"disabled": true
						}
					]
				}
			},
			"response": []
		},
		{
			"name": "localhost:3000/api/song",
			"request": {
				"method": "DELETE",
				"header": [],
				"body": {
					"mode": "urlencoded",
					"urlencoded": [
						{
							"key": "key",
							"value": "4734344027",
							"type": "text"
						},
						{
							"key": "idlagu",
							"value": "",
							"type": "text"
						}
					]
				},
				"url": {
					"raw": "localhost:3000/api/song",
					"host": [
						"localhost"
					],
					"port": "3000",
					"path": [
						"api",
						"song"
					],
					"query": [
						{
							"key": "key",
							"value": null,
							"disabled": true
						}
					]
				}
			},
			"response": []
		}
	],
	"protocolProfileBehavior": {}
}